<svg xmlns="http://www.w3.org/2000/svg" width="16" height="16" viewBox="0 0 16 16">
    <path fill="#FFF" fill-rule="evenodd" d="M8.821 7.679C8.607 7.893 8.333 8 8 8c-.333 0-.607-.107-.821-.321-.215-.215-.322-.489-.322-.822V1.143c0-.333.107-.607.322-.822C7.393.107 7.667 0 8 0c.333 0 .607.107.821.321.215.215.322.489.322.822v5.714c0 .333-.107.607-.322.822zm3.572-6.358c1.119.739 2 1.69 2.643 2.858C15.679 5.345 16 6.619 16 8c0 2.214-.78 4.101-2.34 5.66C12.102 15.22 10.215 16 8 16s-4.101-.78-5.66-2.34C.78 12.102 0 10.215 0 8c0-1.381.321-2.655.964-3.821A8.002 8.002 0 0 1 3.607 1.32c.19-.119.393-.178.607-.178.334 0 .607.107.822.321.214.215.321.488.321.822 0 .214-.06.416-.178.607a1.05 1.05 0 0 1-.25.286c0 .023-.024.047-.072.071l-.071.036a8.231 8.231 0 0 0-.822.678C2.845 5.084 2.286 6.43 2.286 8c0 1.571.56 2.917 1.678 4.036C5.084 13.155 6.43 13.714 8 13.714c1.571 0 2.917-.56 4.036-1.678 1.119-1.12 1.678-2.465 1.678-4.036 0-1.571-.56-2.917-1.678-4.036a8.231 8.231 0 0 0-.822-.678 1.064 1.064 0 0 0-.143-.107 1.05 1.05 0 0 1-.25-.286 1.126 1.126 0 0 1-.178-.607c0-.334.107-.607.321-.822.215-.214.488-.321.822-.321.214 0 .416.06.607.178z"/>
</svg>
